[
  {
    "id": 1,
    "image": "https://www.designinfo.in/wp-content/uploads/2023/12/Apple-iPhone-15-Pro-Max-256GB-Natural-Titanium-1-optimized.webp",
    "title": "iPhone 15promax",
    "price": 1050
  },
  {
    "id": 2,
    "image": "https://m.xcite.com/media/catalog/product/cache/1/small_image/350x/9df78eab33525d08d6e5fb8d27136e95/i/m/image_template_2_-_2020-11-23t113708.928.jpg",
    "title": "Macbook M1 Air",
    "price": 500
  },
  {
    "id": 3,
    "image": "https://encrypted-tbn0.gstatic.com/images?q=tbn:ANd9GcTJRDUvcalcih0UWlBM2v-j5LtKmvbLbjbOdChvqaMPwU5XNy5LssRx8pGttEm3awyZM7Q&usqp=CAU",
    "title": "One plus",
    "price": 200
  },
  {
    "id": 4,
    "image": "https://i5.walmartimages.com.mx/mg/gm/3pp/asr/60fafa14-2087-4e8b-a20c-6a5fbbbb66ed.38b3d6838dda31b98085ce3618943f5a.jpeg?odnHeight=612&odnWidth=612&odnBg=FFFFFF",
    "title": "Galaxy S23 Ultra",
    "price": 950
  }
]
